EESchema Schematic File Version 4
EELAYER 30 0
EELAYER END
$Descr USLetter 11000 8500
encoding utf-8
Sheet 1 1
Title "IoT-ESP8266-Board"
Date "2020-11-29"
Rev "0.3.0"
Comp "Universidad Sergio Arboleda"
Comment1 "Camilo Arzuza Bonett"
Comment2 ""
Comment3 ""
Comment4 ""
$EndDescr
$Comp
L Regulator_Linear:AP2112K-3.3 U1
U 1 1 5FAC0763
P 3155 1350
F 0 "U1" H 3155 1692 50  0000 C CNN
F 1 "AP2112K-3.3" H 3155 1601 50  0000 C CNN
F 2 "Package_TO_SOT_SMD:SOT-23-5" H 3155 1675 50  0001 C CNN
F 3 "https://www.diodes.com/assets/Datasheets/AP2112.pdf" H 3155 1450 50  0001 C CNN
	1    3155 1350
	1    0    0    -1  
$EndComp
$Comp
L Device:C_Small C2
U 1 1 5FAC190D
P 2095 1390
F 0 "C2" H 2187 1436 50  0000 L CNN
F 1 "10uF" H 2187 1345 50  0000 L CNN
F 2 "Capacitor_SMD:C_0805_2012Metric_Pad1.15x1.40mm_HandSolder" H 2095 1390 50  0001 C CNN
F 3 "~" H 2095 1390 50  0001 C CNN
	1    2095 1390
	1    0    0    -1  
$EndComp
$Comp
L Device:C_Small C3
U 1 1 5FAC351F
P 3740 1420
F 0 "C3" H 3832 1466 50  0000 L CNN
F 1 "1uF" H 3832 1375 50  0000 L CNN
F 2 "Capacitor_SMD:C_0805_2012Metric_Pad1.15x1.40mm_HandSolder" H 3740 1420 50  0001 C CNN
F 3 "~" H 3740 1420 50  0001 C CNN
	1    3740 1420
	1    0    0    -1  
$EndComp
$Comp
L Device:C_Small C1
U 1 1 5FAC3958
P 900 1405
F 0 "C1" H 992 1451 50  0000 L CNN
F 1 "10uF" H 992 1360 50  0000 L CNN
F 2 "Capacitor_SMD:C_0805_2012Metric_Pad1.15x1.40mm_HandSolder" H 900 1405 50  0001 C CNN
F 3 "~" H 900 1405 50  0001 C CNN
	1    900  1405
	1    0    0    -1  
$EndComp
$Comp
L Device:R_Small R1
U 1 1 5FAC66B3
P 2685 1395
F 0 "R1" H 2626 1349 50  0000 R CNN
F 1 "10k" H 2626 1440 50  0000 R CNN
F 2 "Resistor_SMD:R_0603_1608Metric_Pad1.05x0.95mm_HandSolder" H 2685 1395 50  0001 C CNN
F 3 "~" H 2685 1395 50  0001 C CNN
	1    2685 1395
	1    0    0    1   
$EndComp
Wire Wire Line
	2855 1250 2685 1250
Wire Wire Line
	2685 1250 2685 1295
Wire Wire Line
	2685 1500 2800 1500
Wire Wire Line
	2800 1500 2800 1350
Wire Wire Line
	2800 1350 2855 1350
Wire Wire Line
	2685 1500 2685 1495
Wire Wire Line
	2095 1250 2095 1290
Wire Wire Line
	2095 1250 2685 1250
Connection ~ 2685 1250
Wire Wire Line
	2095 1250 1660 1250
Wire Wire Line
	1660 1250 1660 1175
Connection ~ 2095 1250
Wire Wire Line
	3455 1250 3740 1250
$Comp
L power:+BATT #PWR06
U 1 1 5FAD6939
P 5835 755
F 0 "#PWR06" H 5835 605 50  0001 C CNN
F 1 "+BATT" H 5850 928 50  0000 C CNN
F 2 "" H 5835 755 50  0001 C CNN
F 3 "" H 5835 755 50  0001 C CNN
	1    5835 755 
	1    0    0    -1  
$EndComp
$Comp
L power:GND #PWR012
U 1 1 5FAD890B
P 3155 1755
F 0 "#PWR012" H 3155 1505 50  0001 C CNN
F 1 "GND" H 3160 1582 50  0000 C CNN
F 2 "" H 3155 1755 50  0001 C CNN
F 3 "" H 3155 1755 50  0001 C CNN
	1    3155 1755
	1    0    0    -1  
$EndComp
$Comp
L power:GND #PWR016
U 1 1 5FAD9474
P 3740 1755
F 0 "#PWR016" H 3740 1505 50  0001 C CNN
F 1 "GND" H 3745 1582 50  0000 C CNN
F 2 "" H 3740 1755 50  0001 C CNN
F 3 "" H 3740 1755 50  0001 C CNN
	1    3740 1755
	1    0    0    -1  
$EndComp
$Comp
L power:GND #PWR08
U 1 1 5FAD9E51
P 2095 1755
F 0 "#PWR08" H 2095 1505 50  0001 C CNN
F 1 "GND" H 2100 1582 50  0000 C CNN
F 2 "" H 2095 1755 50  0001 C CNN
F 3 "" H 2095 1755 50  0001 C CNN
	1    2095 1755
	1    0    0    -1  
$EndComp
Wire Wire Line
	2095 1490 2095 1755
Wire Wire Line
	3155 1650 3155 1755
Wire Wire Line
	3740 1520 3740 1755
$Comp
L power:VBUS #PWR07
U 1 1 5FADDD80
P 2095 1145
F 0 "#PWR07" H 2095 995 50  0001 C CNN
F 1 "VBUS" H 2110 1318 50  0000 C CNN
F 2 "" H 2095 1145 50  0001 C CNN
F 3 "" H 2095 1145 50  0001 C CNN
	1    2095 1145
	1    0    0    -1  
$EndComp
$Comp
L power:+3.3V #PWR015
U 1 1 5FAE0C14
P 3740 925
F 0 "#PWR015" H 3740 775 50  0001 C CNN
F 1 "+3.3V" H 3755 1098 50  0000 C CNN
F 2 "" H 3740 925 50  0001 C CNN
F 3 "" H 3740 925 50  0001 C CNN
	1    3740 925 
	1    0    0    -1  
$EndComp
Connection ~ 3740 1250
Wire Wire Line
	3740 1250 3740 1320
$Comp
L Battery_Management:MCP73831-2-OT U2
U 1 1 5FAE4F3D
P 3185 3550
F 0 "U2" H 2780 3900 50  0000 C CNN
F 1 "MCP73831-2-OT" H 2745 3815 50  0000 C CNN
F 2 "Package_TO_SOT_SMD:SOT-23-5" H 3235 3300 50  0001 L CIN
F 3 "http://ww1.microchip.com/downloads/en/DeviceDoc/20001984g.pdf" H 3035 3500 50  0001 C CNN
	1    3185 3550
	1    0    0    -1  
$EndComp
$Comp
L power:VBUS #PWR013
U 1 1 5FAF3AB7
P 3185 3105
F 0 "#PWR013" H 3185 2955 50  0001 C CNN
F 1 "VBUS" H 3200 3278 50  0000 C CNN
F 2 "" H 3185 3105 50  0001 C CNN
F 3 "" H 3185 3105 50  0001 C CNN
	1    3185 3105
	1    0    0    -1  
$EndComp
Wire Wire Line
	3185 3105 3185 3250
$Comp
L power:GND #PWR014
U 1 1 5FAF6A51
P 3185 3960
F 0 "#PWR014" H 3185 3710 50  0001 C CNN
F 1 "GND" H 3190 3787 50  0000 C CNN
F 2 "" H 3185 3960 50  0001 C CNN
F 3 "" H 3185 3960 50  0001 C CNN
	1    3185 3960
	1    0    0    -1  
$EndComp
Wire Wire Line
	3185 3850 3185 3960
$Comp
L power:+BATT #PWR017
U 1 1 5FAF945A
P 3720 3330
F 0 "#PWR017" H 3720 3180 50  0001 C CNN
F 1 "+BATT" H 3735 3503 50  0000 C CNN
F 2 "" H 3720 3330 50  0001 C CNN
F 3 "" H 3720 3330 50  0001 C CNN
	1    3720 3330
	1    0    0    -1  
$EndComp
Wire Wire Line
	3585 3450 3720 3450
Wire Wire Line
	3720 3450 3720 3330
$Comp
L power:VBUS #PWR018
U 1 1 5FAFAFFC
P 4030 2905
F 0 "#PWR018" H 4030 2755 50  0001 C CNN
F 1 "VBUS" H 4045 3078 50  0000 C CNN
F 2 "" H 4030 2905 50  0001 C CNN
F 3 "" H 4030 2905 50  0001 C CNN
	1    4030 2905
	1    0    0    -1  
$EndComp
$Comp
L Device:LED D2
U 1 1 5FAFB4D0
P 4030 3120
F 0 "D2" V 4069 3003 50  0000 R CNN
F 1 "LED_YELLOW" V 3978 3003 50  0000 R CNN
F 2 "LED_SMD:LED_0603_1608Metric_Pad1.05x0.95mm_HandSolder" H 4030 3120 50  0001 C CNN
F 3 "~" H 4030 3120 50  0001 C CNN
	1    4030 3120
	0    -1   -1   0   
$EndComp
$Comp
L Device:R_Small R3
U 1 1 5FAFCB88
P 4030 3475
F 0 "R3" H 3971 3521 50  0000 R CNN
F 1 "1k" H 3971 3430 50  0000 R CNN
F 2 "Resistor_SMD:R_0603_1608Metric_Pad1.05x0.95mm_HandSolder" H 4030 3475 50  0001 C CNN
F 3 "~" H 4030 3475 50  0001 C CNN
	1    4030 3475
	-1   0    0    -1  
$EndComp
Wire Wire Line
	4030 2905 4030 2970
Wire Wire Line
	4030 3270 4030 3375
Wire Wire Line
	4030 3575 4030 3650
Wire Wire Line
	4030 3650 3585 3650
$Comp
L Device:R_Small R2
U 1 1 5FB02BAA
P 2535 3650
F 0 "R2" V 2731 3650 50  0000 C CNN
F 1 "2k" V 2640 3650 50  0000 C CNN
F 2 "Resistor_SMD:R_0603_1608Metric_Pad1.05x0.95mm_HandSolder" H 2535 3650 50  0001 C CNN
F 3 "~" H 2535 3650 50  0001 C CNN
	1    2535 3650
	0    1    -1   0   
$EndComp
$Comp
L power:GND #PWR09
U 1 1 5FB03A1E
P 2295 3730
F 0 "#PWR09" H 2295 3480 50  0001 C CNN
F 1 "GND" H 2300 3557 50  0000 C CNN
F 2 "" H 2295 3730 50  0001 C CNN
F 3 "" H 2295 3730 50  0001 C CNN
	1    2295 3730
	1    0    0    -1  
$EndComp
Wire Wire Line
	2435 3650 2295 3650
Wire Wire Line
	2295 3650 2295 3730
Wire Wire Line
	2635 3650 2785 3650
$Comp
L Device:C_Small C4
U 1 1 5FB076E2
P 1280 3570
F 0 "C4" H 1085 3615 50  0000 L CNN
F 1 "10uF" H 1005 3520 50  0000 L CNN
F 2 "Capacitor_SMD:C_0805_2012Metric_Pad1.15x1.40mm_HandSolder" H 1280 3570 50  0001 C CNN
F 3 "~" H 1280 3570 50  0001 C CNN
	1    1280 3570
	1    0    0    -1  
$EndComp
$Comp
L Device:C_Small C5
U 1 1 5FB07CB8
P 1705 3570
F 0 "C5" H 1797 3616 50  0000 L CNN
F 1 "10uF" H 1797 3525 50  0000 L CNN
F 2 "Capacitor_SMD:C_0805_2012Metric_Pad1.15x1.40mm_HandSolder" H 1705 3570 50  0001 C CNN
F 3 "~" H 1705 3570 50  0001 C CNN
	1    1705 3570
	1    0    0    -1  
$EndComp
$Comp
L power:+BATT #PWR04
U 1 1 5FB0B919
P 1500 3350
F 0 "#PWR04" H 1500 3200 50  0001 C CNN
F 1 "+BATT" H 1515 3523 50  0000 C CNN
F 2 "" H 1500 3350 50  0001 C CNN
F 3 "" H 1500 3350 50  0001 C CNN
	1    1500 3350
	1    0    0    -1  
$EndComp
$Comp
L power:GND #PWR05
U 1 1 5FB0C495
P 1500 3770
F 0 "#PWR05" H 1500 3520 50  0001 C CNN
F 1 "GND" H 1505 3597 50  0000 C CNN
F 2 "" H 1500 3770 50  0001 C CNN
F 3 "" H 1500 3770 50  0001 C CNN
	1    1500 3770
	1    0    0    -1  
$EndComp
Wire Wire Line
	1500 3350 1500 3395
Wire Wire Line
	1500 3395 1705 3395
Wire Wire Line
	1705 3395 1705 3470
Wire Wire Line
	1705 3670 1705 3705
Wire Wire Line
	1705 3705 1500 3705
Wire Wire Line
	1500 3705 1500 3770
Wire Wire Line
	1500 3705 1280 3705
Wire Wire Line
	1280 3705 1280 3670
Connection ~ 1500 3705
Wire Wire Line
	1280 3470 1280 3395
Wire Wire Line
	1280 3395 1500 3395
Connection ~ 1500 3395
$Comp
L Interface_USB:CP2102N-A01-GQFN24 U3
U 1 1 5FB1B874
P 9315 2005
F 0 "U3" H 9665 1160 50  0000 C CNN
F 1 "CP2102N-A01-GQFN24" H 9990 1065 50  0000 C CNN
F 2 "Package_DFN_QFN:QFN-24-1EP_4x4mm_P0.5mm_EP2.6x2.6mm" H 9765 1205 50  0001 L CNN
F 3 "https://www.silabs.com/documents/public/data-sheets/cp2102n-datasheet.pdf" H 9365 955 50  0001 C CNN
	1    9315 2005
	1    0    0    -1  
$EndComp
$Comp
L Device:R_Small R4
U 1 1 5FB1D425
P 8500 1140
F 0 "R4" H 8441 1094 50  0000 R CNN
F 1 "10k" H 8441 1185 50  0000 R CNN
F 2 "Resistor_SMD:R_0603_1608Metric_Pad1.05x0.95mm_HandSolder" H 8500 1140 50  0001 C CNN
F 3 "~" H 8500 1140 50  0001 C CNN
	1    8500 1140
	1    0    0    1   
$EndComp
Wire Wire Line
	8500 1240 8500 1405
Wire Wire Line
	8500 1405 8715 1405
NoConn ~ 8665 1705
NoConn ~ 8665 1805
Wire Wire Line
	8715 1705 8665 1705
Wire Wire Line
	8715 1805 8665 1805
$Comp
L Connector:USB_B_Micro J1
U 1 1 5FB261E4
P 7845 2505
F 0 "J1" H 7902 2972 50  0000 C CNN
F 1 "USB_B_Micro" H 7902 2881 50  0000 C CNN
F 2 "Connector_USB:USB_Micro-B_Wuerth_629105150521_CircularHoles" H 7995 2455 50  0001 C CNN
F 3 "~" H 7995 2455 50  0001 C CNN
	1    7845 2505
	1    0    0    -1  
$EndComp
Wire Wire Line
	8145 2305 8295 2305
Wire Wire Line
	8145 2505 8255 2505
Wire Wire Line
	8255 2405 8715 2405
Wire Wire Line
	8255 2405 8255 2505
Wire Wire Line
	8145 2605 8345 2605
Wire Wire Line
	8345 2605 8345 2505
Wire Wire Line
	8345 2505 8715 2505
NoConn ~ 8215 2705
Wire Wire Line
	8215 2705 8145 2705
$Comp
L power:GND #PWR024
U 1 1 5FB3338F
P 7845 3030
F 0 "#PWR024" H 7845 2780 50  0001 C CNN
F 1 "GND" H 7850 2857 50  0000 C CNN
F 2 "" H 7845 3030 50  0001 C CNN
F 3 "" H 7845 3030 50  0001 C CNN
	1    7845 3030
	1    0    0    -1  
$EndComp
Wire Wire Line
	7845 2905 7845 2975
Text GLabel 10140 1705 2    50   Input ~ 0
TxD
Text GLabel 10140 1805 2    50   Output ~ 0
RxD
Text GLabel 10140 2005 2    50   UnSpc ~ 0
DTR
Text GLabel 10140 1505 2    50   UnSpc ~ 0
CTS
NoConn ~ 10040 2105
NoConn ~ 10040 1405
NoConn ~ 10040 2305
NoConn ~ 10040 2405
NoConn ~ 10040 2505
NoConn ~ 10040 2605
Wire Wire Line
	9915 1405 10040 1405
Wire Wire Line
	9915 1505 10140 1505
Wire Wire Line
	9915 1605 10140 1605
Wire Wire Line
	9915 1705 10140 1705
Wire Wire Line
	9915 1805 10140 1805
Wire Wire Line
	9915 1905 10140 1905
Wire Wire Line
	9915 2005 10140 2005
Text GLabel 10140 1605 2    50   UnSpc ~ 0
RTS
Wire Wire Line
	9915 2105 10040 2105
Wire Wire Line
	9915 2305 10040 2305
Wire Wire Line
	9915 2405 10040 2405
Wire Wire Line
	9915 2505 10040 2505
Wire Wire Line
	9915 2605 10040 2605
Wire Wire Line
	8715 2005 8535 2005
Wire Wire Line
	8535 2005 8535 2305
Connection ~ 8535 2305
Wire Wire Line
	8535 2305 8715 2305
$Comp
L power:VBUS #PWR027
U 1 1 5FB52EBE
P 8295 2075
F 0 "#PWR027" H 8295 1925 50  0001 C CNN
F 1 "VBUS" H 8310 2248 50  0000 C CNN
F 2 "" H 8295 2075 50  0001 C CNN
F 3 "" H 8295 2075 50  0001 C CNN
	1    8295 2075
	1    0    0    -1  
$EndComp
Wire Wire Line
	8295 2075 8295 2305
Connection ~ 8295 2305
Wire Wire Line
	8295 2305 8535 2305
$Comp
L power:GND #PWR029
U 1 1 5FB61DD6
P 9365 3035
F 0 "#PWR029" H 9365 2785 50  0001 C CNN
F 1 "GND" H 9370 2862 50  0000 C CNN
F 2 "" H 9365 3035 50  0001 C CNN
F 3 "" H 9365 3035 50  0001 C CNN
	1    9365 3035
	1    0    0    -1  
$EndComp
Wire Wire Line
	9315 2905 9315 2980
Wire Wire Line
	9315 2980 9365 2980
Wire Wire Line
	9415 2905 9415 2980
Wire Wire Line
	9415 2980 9365 2980
Connection ~ 9365 2980
Wire Wire Line
	9365 2980 9365 3035
$Comp
L Device:C_Small C6
U 1 1 5FB6ACAF
P 9475 740
F 0 "C6" H 9567 786 50  0000 L CNN
F 1 "10uF" H 9567 695 50  0000 L CNN
F 2 "Capacitor_SMD:C_0805_2012Metric_Pad1.15x1.40mm_HandSolder" H 9475 740 50  0001 C CNN
F 3 "~" H 9475 740 50  0001 C CNN
	1    9475 740 
	1    0    0    -1  
$EndComp
Wire Wire Line
	9215 1105 9215 1070
Wire Wire Line
	9215 1070 9265 1070
Wire Wire Line
	9315 1070 9315 1105
Wire Wire Line
	9265 1070 9265 595 
Wire Wire Line
	9265 595  9475 595 
Wire Wire Line
	9475 595  9475 640 
Connection ~ 9265 1070
Wire Wire Line
	9265 1070 9315 1070
$Comp
L power:GND #PWR030
U 1 1 5FB71C56
P 9475 910
F 0 "#PWR030" H 9475 660 50  0001 C CNN
F 1 "GND" H 9480 737 50  0000 C CNN
F 2 "" H 9475 910 50  0001 C CNN
F 3 "" H 9475 910 50  0001 C CNN
	1    9475 910 
	1    0    0    -1  
$EndComp
Wire Wire Line
	9475 840  9475 910 
Text GLabel 3845 5400 0    50   Input ~ 0
~RESET
Text GLabel 3850 5700 0    50   Input ~ 0
ENABLE
Wire Wire Line
	3845 5400 3995 5400
Wire Wire Line
	3850 5700 3995 5700
$Comp
L Device:R_Small R5
U 1 1 5FBD860A
P 5265 5055
F 0 "R5" H 5206 5101 50  0000 R CNN
F 1 "1k" H 5206 5010 50  0000 R CNN
F 2 "Resistor_SMD:R_0603_1608Metric_Pad1.05x0.95mm_HandSolder" H 5265 5055 50  0001 C CNN
F 3 "~" H 5265 5055 50  0001 C CNN
	1    5265 5055
	-1   0    0    -1  
$EndComp
Text GLabel 4965 5100 2    50   Output ~ 0
TxD
Wire Wire Line
	4965 5100 4795 5100
Text GLabel 5330 4890 2    50   Input ~ 0
RxD
$Comp
L power:GND #PWR011
U 1 1 5FC02DE2
P 3905 6335
F 0 "#PWR011" H 3905 6085 50  0001 C CNN
F 1 "GND" H 3910 6162 50  0000 C CNN
F 2 "" H 3905 6335 50  0001 C CNN
F 3 "" H 3905 6335 50  0001 C CNN
	1    3905 6335
	1    0    0    -1  
$EndComp
Text GLabel 4910 6000 2    50   BiDi ~ 0
GPIO4
Text GLabel 4915 5600 2    50   BiDi ~ 0
GPIO14_SCK
Text GLabel 4915 5700 2    50   BiDi ~ 0
GPIO13_MOSI
$Comp
L Device:R_Small R8
U 1 1 5FCB52BA
P 2605 7225
F 0 "R8" H 2546 7179 50  0000 R CNN
F 1 "10k" H 2546 7270 50  0000 R CNN
F 2 "Resistor_SMD:R_0603_1608Metric_Pad1.05x0.95mm_HandSolder" H 2605 7225 50  0001 C CNN
F 3 "~" H 2605 7225 50  0001 C CNN
	1    2605 7225
	1    0    0    1   
$EndComp
Text GLabel 4905 6200 2    50   BiDi ~ 0
GPIO0
Wire Wire Line
	4905 6200 4795 6200
$Comp
L power:+3.3V #PWR010
U 1 1 5FBF803D
P 3915 5040
F 0 "#PWR010" H 3915 4890 50  0001 C CNN
F 1 "+3.3V" H 3930 5213 50  0000 C CNN
F 2 "" H 3915 5040 50  0001 C CNN
F 3 "" H 3915 5040 50  0001 C CNN
	1    3915 5040
	1    0    0    -1  
$EndComp
$Comp
L power:GND #PWR03
U 1 1 5FCE5E70
P 2605 7460
F 0 "#PWR03" H 2605 7210 50  0001 C CNN
F 1 "GND" H 2610 7287 50  0000 C CNN
F 2 "" H 2605 7460 50  0001 C CNN
F 3 "" H 2605 7460 50  0001 C CNN
	1    2605 7460
	1    0    0    -1  
$EndComp
Text GLabel 2450 6885 0    50   BiDi ~ 0
GPIO15
Wire Wire Line
	2605 6885 2450 6885
Wire Wire Line
	2605 6885 2605 7125
Wire Wire Line
	2605 7325 2605 7460
Text GLabel 7925 6145 0    50   BiDi ~ 0
GPIO0
$Comp
L power:+3.3V #PWR023
U 1 1 5FD206CA
P 8030 5080
F 0 "#PWR023" H 8030 4930 50  0001 C CNN
F 1 "+3.3V" H 8045 5253 50  0000 C CNN
F 2 "" H 8030 5080 50  0001 C CNN
F 3 "" H 8030 5080 50  0001 C CNN
	1    8030 5080
	1    0    0    -1  
$EndComp
$Comp
L Device:R_Small R9
U 1 1 5FD206D0
P 8030 5890
F 0 "R9" H 7971 5844 50  0000 R CNN
F 1 "10k" H 7971 5935 50  0000 R CNN
F 2 "Resistor_SMD:R_0603_1608Metric_Pad1.05x0.95mm_HandSolder" H 8030 5890 50  0001 C CNN
F 3 "~" H 8030 5890 50  0001 C CNN
	1    8030 5890
	1    0    0    1   
$EndComp
Wire Wire Line
	7925 6145 8030 6145
Wire Wire Line
	8030 6145 8030 5990
$Comp
L Device:LED D3
U 1 1 5FD2E50F
P 8030 5375
F 0 "D3" V 8069 5258 50  0000 R CNN
F 1 "LED_YELLOW" V 7978 5258 50  0000 R CNN
F 2 "LED_SMD:LED_0603_1608Metric_Pad1.05x0.95mm_HandSolder" H 8030 5375 50  0001 C CNN
F 3 "~" H 8030 5375 50  0001 C CNN
	1    8030 5375
	0    -1   -1   0   
$EndComp
Wire Wire Line
	8030 5525 8030 5790
Wire Wire Line
	8030 5080 8030 5225
$Comp
L power:+3.3V #PWR025
U 1 1 5FD5978A
P 9385 5065
F 0 "#PWR025" H 9385 4915 50  0001 C CNN
F 1 "+3.3V" H 9400 5238 50  0000 C CNN
F 2 "" H 9385 5065 50  0001 C CNN
F 3 "" H 9385 5065 50  0001 C CNN
	1    9385 5065
	1    0    0    -1  
$EndComp
$Comp
L Device:R_Small R10
U 1 1 5FD59790
P 9385 5310
F 0 "R10" H 9327 5264 50  0000 R CNN
F 1 "10k" H 9327 5355 50  0000 R CNN
F 2 "Resistor_SMD:R_0603_1608Metric_Pad1.05x0.95mm_HandSolder" H 9385 5310 50  0001 C CNN
F 3 "~" H 9385 5310 50  0001 C CNN
	1    9385 5310
	1    0    0    1   
$EndComp
Wire Wire Line
	9385 5065 9385 5210
Text GLabel 9175 5570 0    50   Input ~ 0
~RESET
Wire Wire Line
	9385 5570 9385 5410
Wire Wire Line
	9175 5570 9385 5570
$Comp
L Switch:SW_Push SW1
U 1 1 5FD79CE9
P 9385 5960
F 0 "SW1" V 9339 6108 50  0000 L CNN
F 1 "SW_Push" V 9430 6108 50  0000 L CNN
F 2 "Button_Switch_SMD:SW_SPST_B3U-1000P" H 9385 6160 50  0001 C CNN
F 3 "~" H 9385 6160 50  0001 C CNN
	1    9385 5960
	0    1    1    0   
$EndComp
Wire Wire Line
	9385 5570 9385 5760
Connection ~ 9385 5570
$Comp
L power:GND #PWR026
U 1 1 5FD81BA7
P 9385 6295
F 0 "#PWR026" H 9385 6045 50  0001 C CNN
F 1 "GND" H 9390 6122 50  0000 C CNN
F 2 "" H 9385 6295 50  0001 C CNN
F 3 "" H 9385 6295 50  0001 C CNN
	1    9385 6295
	1    0    0    -1  
$EndComp
Wire Wire Line
	9385 6295 9385 6160
$Comp
L Device:C_Small C7
U 1 1 5FE06B64
P 5085 7280
F 0 "C7" H 4890 7325 50  0000 L CNN
F 1 "10uF" H 4810 7230 50  0000 L CNN
F 2 "Capacitor_SMD:C_0805_2012Metric_Pad1.15x1.40mm_HandSolder" H 5085 7280 50  0001 C CNN
F 3 "~" H 5085 7280 50  0001 C CNN
	1    5085 7280
	1    0    0    -1  
$EndComp
$Comp
L Device:C_Small C8
U 1 1 5FE06B6A
P 5510 7280
F 0 "C8" H 5602 7326 50  0000 L CNN
F 1 "100nF" H 5602 7235 50  0000 L CNN
F 2 "Capacitor_SMD:C_0805_2012Metric_Pad1.15x1.40mm_HandSolder" H 5510 7280 50  0001 C CNN
F 3 "~" H 5510 7280 50  0001 C CNN
	1    5510 7280
	1    0    0    -1  
$EndComp
$Comp
L power:GND #PWR032
U 1 1 5FE06B76
P 5305 7480
F 0 "#PWR032" H 5305 7230 50  0001 C CNN
F 1 "GND" H 5310 7307 50  0000 C CNN
F 2 "" H 5305 7480 50  0001 C CNN
F 3 "" H 5305 7480 50  0001 C CNN
	1    5305 7480
	1    0    0    -1  
$EndComp
Wire Wire Line
	5305 7060 5305 7105
Wire Wire Line
	5305 7105 5510 7105
Wire Wire Line
	5510 7105 5510 7180
Wire Wire Line
	5510 7380 5510 7415
Wire Wire Line
	5510 7415 5305 7415
Wire Wire Line
	5305 7415 5305 7480
Wire Wire Line
	5305 7415 5085 7415
Wire Wire Line
	5085 7415 5085 7380
Connection ~ 5305 7415
Wire Wire Line
	5085 7180 5085 7105
Wire Wire Line
	5085 7105 5305 7105
Connection ~ 5305 7105
$Comp
L power:+3.3V #PWR031
U 1 1 5FE0C83E
P 5305 7060
F 0 "#PWR031" H 5305 6910 50  0001 C CNN
F 1 "+3.3V" H 5320 7233 50  0000 C CNN
F 2 "" H 5305 7060 50  0001 C CNN
F 3 "" H 5305 7060 50  0001 C CNN
	1    5305 7060
	1    0    0    -1  
$EndComp
$Comp
L power:+3.3V #PWR01
U 1 1 5FE1A115
P 900 1225
F 0 "#PWR01" H 900 1075 50  0001 C CNN
F 1 "+3.3V" H 915 1398 50  0000 C CNN
F 2 "" H 900 1225 50  0001 C CNN
F 3 "" H 900 1225 50  0001 C CNN
	1    900  1225
	1    0    0    -1  
$EndComp
$Comp
L power:GND #PWR02
U 1 1 5FE1AE46
P 900 1600
F 0 "#PWR02" H 900 1350 50  0001 C CNN
F 1 "GND" H 905 1427 50  0000 C CNN
F 2 "" H 900 1600 50  0001 C CNN
F 3 "" H 900 1600 50  0001 C CNN
	1    900  1600
	1    0    0    -1  
$EndComp
Wire Wire Line
	900  1600 900  1505
Wire Wire Line
	900  1225 900  1305
$Comp
L B2B-XH-A_LF__SN_:B2B-XH-A(LF)(SN) J2
U 1 1 5FE52BAE
P 4745 1345
F 0 "J2" H 4700 995 50  0000 L CNN
F 1 "B2B-XH-A(LF)(SN)" H 4380 890 50  0000 L CNN
F 2 "Connector_JST:JST_EH_B2B-EH-A_1x02_P2.50mm_Vertical" H 4745 1345 50  0001 L BNN
F 3 "" H 4745 1345 50  0001 L BNN
F 4 "N/A" H 4745 1345 50  0001 L BNN "PARTREV"
F 5 "JST" H 4745 1345 50  0001 L BNN "MANUFACTURER"
F 6 "Manufacturer Recommendations" H 4745 1345 50  0001 L BNN "STANDARD"
	1    4745 1345
	1    0    0    -1  
$EndComp
$Comp
L power:+BATT #PWR020
U 1 1 5FE56667
P 4235 1250
F 0 "#PWR020" H 4235 1100 50  0001 C CNN
F 1 "+BATT" H 4250 1423 50  0000 C CNN
F 2 "" H 4235 1250 50  0001 C CNN
F 3 "" H 4235 1250 50  0001 C CNN
	1    4235 1250
	1    0    0    -1  
$EndComp
$Comp
L power:GND #PWR021
U 1 1 5FE5832B
P 4235 1530
F 0 "#PWR021" H 4235 1280 50  0001 C CNN
F 1 "GND" H 4240 1357 50  0000 C CNN
F 2 "" H 4235 1530 50  0001 C CNN
F 3 "" H 4235 1530 50  0001 C CNN
	1    4235 1530
	1    0    0    -1  
$EndComp
Wire Wire Line
	4345 1345 4235 1345
Wire Wire Line
	4235 1345 4235 1250
Wire Wire Line
	4345 1445 4235 1445
Wire Wire Line
	4235 1445 4235 1530
Wire Notes Line
	1195 950  1195 1845
Wire Notes Line
	1195 1845 690  1845
Wire Notes Line
	690  1845 690  950 
Wire Notes Line
	690  950  1195 950 
Wire Notes Line
	980  3065 2025 3065
Wire Notes Line
	2025 3065 2025 4000
Wire Notes Line
	2025 4000 980  4000
Wire Notes Line
	980  4000 980  3065
Wire Notes Line
	7525 530  7525 3280
Wire Notes Line
	7525 3280 10480 3280
Wire Notes Line
	10480 3280 10480 530 
Wire Notes Line
	10480 530  7525 530 
Wire Notes Line
	10070 4690 10070 6680
Wire Notes Line
	10070 6680 6155 6680
Wire Notes Line
	6155 6680 6155 7930
Wire Notes Line
	4760 7775 4760 6765
Wire Notes Line
	9915 4835 9915 6550
Wire Notes Line
	9915 6550 8835 6550
Wire Notes Line
	8835 6550 8835 4835
Wire Notes Line
	8835 4835 9915 4835
Wire Notes Line
	7575 4825 8675 4825
Wire Notes Line
	8675 4825 8675 6235
Wire Notes Line
	8675 6235 7575 6235
Wire Notes Line
	7575 6235 7575 4825
Wire Notes Line
	1955 6755 2845 6755
Wire Notes Line
	2845 6755 2845 7730
Wire Notes Line
	2845 7730 1955 7730
Wire Notes Line
	1955 7730 1955 6755
$Comp
L ESP-12S:ESP-12S U4
U 1 1 5FB61CEB
P 4395 5700
F 0 "U4" H 4395 6567 50  0000 C CNN
F 1 "ESP-12S" H 4395 6476 50  0000 C CNN
F 2 "ESP-12S:ESP-12S" H 4395 5700 50  0001 L BNN
F 3 "" H 4395 5700 50  0001 L BNN
F 4 "IC-14115" H 4395 5700 50  0001 L BNN "PROD_ID"
	1    4395 5700
	1    0    0    -1  
$EndComp
Wire Wire Line
	3995 5100 3915 5100
Wire Wire Line
	3915 5100 3915 5040
Wire Wire Line
	3995 6200 3905 6200
Wire Wire Line
	3905 6200 3905 6335
Wire Wire Line
	4795 5200 5265 5200
Wire Wire Line
	5265 5200 5265 5155
Wire Wire Line
	5330 4890 5265 4890
Wire Wire Line
	5265 4890 5265 4955
Text GLabel 4910 6100 2    50   BiDi ~ 0
GPIO2
Text GLabel 4915 5500 2    50   BiDi ~ 0
GPIO15
Text GLabel 4910 5900 2    50   BiDi ~ 0
GPIO5
Text GLabel 4910 5800 2    50   BiDi ~ 0
GPIO12_MISO
Wire Wire Line
	4915 5500 4795 5500
Wire Wire Line
	4915 5600 4795 5600
Wire Wire Line
	4915 5700 4795 5700
Wire Wire Line
	4910 5800 4795 5800
Wire Wire Line
	4910 5900 4795 5900
Wire Wire Line
	4910 6000 4795 6000
Wire Wire Line
	4910 6100 4795 6100
Wire Notes Line
	5575 4790 3475 4790
Wire Notes Line
	3475 4790 3475 6600
Wire Notes Line
	3475 6600 5575 6600
Wire Notes Line
	5575 4790 5575 6600
$Comp
L Device:Q_NPN_BEC Q1
U 1 1 5FCFB6F4
P 6730 5265
F 0 "Q1" H 6921 5311 50  0000 L CNN
F 1 "MMBT2222" H 6921 5220 50  0000 L CNN
F 2 "Package_TO_SOT_SMD:SOT-23" H 6930 5365 50  0001 C CNN
F 3 "~" H 6730 5265 50  0001 C CNN
	1    6730 5265
	1    0    0    -1  
$EndComp
Text GLabel 6930 6190 2    50   Input ~ 0
~RESET
Wire Wire Line
	6830 6010 6830 6190
Wire Wire Line
	6830 6190 6930 6190
$Comp
L Device:R_Small R12
U 1 1 5FD085AA
P 6315 5810
F 0 "R12" V 6160 5885 50  0000 R CNN
F 1 "10k" V 6235 5880 50  0000 R CNN
F 2 "Resistor_SMD:R_0603_1608Metric_Pad1.05x0.95mm_HandSolder" H 6315 5810 50  0001 C CNN
F 3 "~" H 6315 5810 50  0001 C CNN
	1    6315 5810
	0    1    -1   0   
$EndComp
$Comp
L Device:R_Small R11
U 1 1 5FD1A1B8
P 6320 5265
F 0 "R11" V 6160 5340 50  0000 R CNN
F 1 "10k" V 6240 5335 50  0000 R CNN
F 2 "Resistor_SMD:R_0603_1608Metric_Pad1.05x0.95mm_HandSolder" H 6320 5265 50  0001 C CNN
F 3 "~" H 6320 5265 50  0001 C CNN
	1    6320 5265
	0    -1   1    0   
$EndComp
Text GLabel 6935 4925 2    50   BiDi ~ 0
GPIO0
Wire Wire Line
	6830 5065 6830 4925
Wire Wire Line
	6830 4925 6935 4925
Text GLabel 5965 5810 0    50   UnSpc ~ 0
DTR
Text GLabel 5965 5265 0    50   UnSpc ~ 0
RTS
$Comp
L Device:Q_NPN_BEC Q2
U 1 1 5FCFD2A8
P 6730 5810
F 0 "Q2" H 6921 5856 50  0000 L CNN
F 1 "MMBT2222" H 6921 5765 50  0000 L CNN
F 2 "Package_TO_SOT_SMD:SOT-23" H 6930 5910 50  0001 C CNN
F 3 "~" H 6730 5810 50  0001 C CNN
	1    6730 5810
	1    0    0    -1  
$EndComp
Wire Wire Line
	6530 5265 6420 5265
Wire Wire Line
	6530 5810 6415 5810
Wire Wire Line
	5965 5265 6105 5265
Wire Wire Line
	5965 5810 6105 5810
Wire Wire Line
	6105 5265 6105 5460
Wire Wire Line
	6105 5460 6830 5575
Wire Wire Line
	6830 5575 6830 5610
Connection ~ 6105 5265
Wire Wire Line
	6105 5265 6220 5265
Wire Wire Line
	6105 5810 6105 5575
Wire Wire Line
	6105 5575 6830 5485
Wire Wire Line
	6830 5485 6830 5465
Connection ~ 6105 5810
Wire Wire Line
	6105 5810 6215 5810
Wire Notes Line
	5715 4805 7435 4805
Wire Notes Line
	7435 4805 7435 6275
Wire Notes Line
	7435 6275 5715 6275
Wire Notes Line
	5715 6275 5715 4805
$Comp
L Sensor:DHT11 U5
U 1 1 5FDD9920
P 1370 5730
F 0 "U5" H 1140 5675 50  0000 R CNN
F 1 "DHT11" H 1145 5590 50  0000 R CNN
F 2 "Sensor:Aosong_DHT11_5.5x12.0_P2.54mm" H 1370 5330 50  0001 C CNN
F 3 "http://akizukidenshi.com/download/ds/aosong/DHT11.pdf" H 1520 5980 50  0001 C CNN
	1    1370 5730
	1    0    0    -1  
$EndComp
$Comp
L Device:C_Small C9
U 1 1 5FDE0A94
P 985 5280
F 0 "C9" H 1077 5326 50  0000 L CNN
F 1 "100nF" H 1077 5235 50  0000 L CNN
F 2 "Capacitor_SMD:C_0805_2012Metric_Pad1.15x1.40mm_HandSolder" H 985 5280 50  0001 C CNN
F 3 "~" H 985 5280 50  0001 C CNN
	1    985  5280
	-1   0    0    1   
$EndComp
$Comp
L power:+3.3V #PWR034
U 1 1 5FDF7110
P 1370 5140
F 0 "#PWR034" H 1370 4990 50  0001 C CNN
F 1 "+3.3V" H 1385 5313 50  0000 C CNN
F 2 "" H 1370 5140 50  0001 C CNN
F 3 "" H 1370 5140 50  0001 C CNN
	1    1370 5140
	1    0    0    -1  
$EndComp
Wire Wire Line
	1370 5140 1370 5165
Wire Wire Line
	1370 5165 985  5165
Wire Wire Line
	985  5165 985  5180
Connection ~ 1370 5165
Wire Wire Line
	1370 5165 1370 5430
$Comp
L power:GND #PWR035
U 1 1 5FE19B09
P 1370 6075
F 0 "#PWR035" H 1370 5825 50  0001 C CNN
F 1 "GND" H 1375 5902 50  0000 C CNN
F 2 "" H 1370 6075 50  0001 C CNN
F 3 "" H 1370 6075 50  0001 C CNN
	1    1370 6075
	1    0    0    -1  
$EndComp
$Comp
L power:GND #PWR033
U 1 1 5FE19FEE
P 985 5420
F 0 "#PWR033" H 985 5170 50  0001 C CNN
F 1 "GND" H 990 5247 50  0000 C CNN
F 2 "" H 985 5420 50  0001 C CNN
F 3 "" H 985 5420 50  0001 C CNN
	1    985  5420
	1    0    0    -1  
$EndComp
Wire Wire Line
	985  5380 985  5420
Wire Wire Line
	1370 6030 1370 6075
$Comp
L Device:R_Small R13
U 1 1 5FE348DA
P 1770 5355
F 0 "R13" H 1711 5309 50  0000 R CNN
F 1 "10k" H 1711 5400 50  0000 R CNN
F 2 "Resistor_SMD:R_0603_1608Metric_Pad1.05x0.95mm_HandSolder" H 1770 5355 50  0001 C CNN
F 3 "~" H 1770 5355 50  0001 C CNN
	1    1770 5355
	-1   0    0    -1  
$EndComp
Wire Wire Line
	1365 5165 1370 5165
Wire Wire Line
	1370 5165 1770 5165
Wire Wire Line
	1770 5165 1770 5255
Wire Wire Line
	1770 5455 1770 5730
Wire Wire Line
	1770 5730 1670 5730
Text GLabel 1885 5730 2    50   BiDi ~ 0
GPIO4
Wire Wire Line
	1885 5730 1770 5730
Connection ~ 1770 5730
Wire Notes Line
	2940 6765 4645 6765
Wire Notes Line
	2940 7650 2940 6765
Wire Notes Line
	4645 7650 2940 7650
Wire Notes Line
	4645 6765 4645 7650
Wire Wire Line
	4445 7030 4445 7175
Wire Wire Line
	4445 7530 4445 7375
Wire Wire Line
	4340 7530 4445 7530
$Comp
L Device:R_Small R7
U 1 1 5FD025A1
P 4445 7275
F 0 "R7" H 4386 7229 50  0000 R CNN
F 1 "10k" H 4386 7320 50  0000 R CNN
F 2 "Resistor_SMD:R_0603_1608Metric_Pad1.05x0.95mm_HandSolder" H 4445 7275 50  0001 C CNN
F 3 "~" H 4445 7275 50  0001 C CNN
	1    4445 7275
	1    0    0    1   
$EndComp
$Comp
L power:+3.3V #PWR022
U 1 1 5FD0259B
P 4445 7030
F 0 "#PWR022" H 4445 6880 50  0001 C CNN
F 1 "+3.3V" H 4460 7203 50  0000 C CNN
F 2 "" H 4445 7030 50  0001 C CNN
F 3 "" H 4445 7030 50  0001 C CNN
	1    4445 7030
	1    0    0    -1  
$EndComp
Text GLabel 4340 7530 0    50   BiDi ~ 0
GPIO2
Wire Wire Line
	3850 7030 3850 7175
Wire Wire Line
	3850 7530 3850 7375
Wire Wire Line
	3745 7530 3850 7530
$Comp
L Device:R_Small R6
U 1 1 5FC7CBE3
P 3850 7275
F 0 "R6" H 3791 7229 50  0000 R CNN
F 1 "10k" H 3791 7320 50  0000 R CNN
F 2 "Resistor_SMD:R_0603_1608Metric_Pad1.05x0.95mm_HandSolder" H 3850 7275 50  0001 C CNN
F 3 "~" H 3850 7275 50  0001 C CNN
	1    3850 7275
	1    0    0    1   
$EndComp
$Comp
L power:+3.3V #PWR019
U 1 1 5FC7B0B6
P 3850 7030
F 0 "#PWR019" H 3850 6880 50  0001 C CNN
F 1 "+3.3V" H 3865 7203 50  0000 C CNN
F 2 "" H 3850 7030 50  0001 C CNN
F 3 "" H 3850 7030 50  0001 C CNN
	1    3850 7030
	1    0    0    -1  
$EndComp
Text GLabel 3745 7530 0    50   Input ~ 0
ENABLE
$Comp
L power:+3.3V #PWR036
U 1 1 5FF718D9
P 2855 5075
F 0 "#PWR036" H 2855 4925 50  0001 C CNN
F 1 "+3.3V" H 2870 5248 50  0000 C CNN
F 2 "" H 2855 5075 50  0001 C CNN
F 3 "" H 2855 5075 50  0001 C CNN
	1    2855 5075
	1    0    0    -1  
$EndComp
$Comp
L Device:R_Small R14
U 1 1 5FF718DF
P 2855 5320
F 0 "R14" H 2797 5274 50  0000 R CNN
F 1 "10k" H 2797 5365 50  0000 R CNN
F 2 "Resistor_SMD:R_0603_1608Metric_Pad1.05x0.95mm_HandSolder" H 2855 5320 50  0001 C CNN
F 3 "~" H 2855 5320 50  0001 C CNN
	1    2855 5320
	1    0    0    1   
$EndComp
Wire Wire Line
	2855 5075 2855 5220
Wire Wire Line
	2855 5580 2855 5420
Wire Wire Line
	2645 5580 2855 5580
$Comp
L Switch:SW_Push SW2
U 1 1 5FF718E9
P 2855 5970
F 0 "SW2" V 2809 6118 50  0000 L CNN
F 1 "SW_Push" V 2900 6118 50  0000 L CNN
F 2 "Button_Switch_SMD:SW_SPST_B3U-1000P" H 2855 6170 50  0001 C CNN
F 3 "~" H 2855 6170 50  0001 C CNN
	1    2855 5970
	0    1    1    0   
$EndComp
Wire Wire Line
	2855 5580 2855 5770
Connection ~ 2855 5580
$Comp
L power:GND #PWR037
U 1 1 5FF718F1
P 2855 6305
F 0 "#PWR037" H 2855 6055 50  0001 C CNN
F 1 "GND" H 2860 6132 50  0000 C CNN
F 2 "" H 2855 6305 50  0001 C CNN
F 3 "" H 2855 6305 50  0001 C CNN
	1    2855 6305
	1    0    0    -1  
$EndComp
Wire Wire Line
	2855 6305 2855 6170
Text GLabel 4915 5400 2    50   BiDi ~ 0
GPIO16
Wire Wire Line
	4915 5400 4795 5400
Text GLabel 4915 5300 2    50   Input ~ 0
ADC
Wire Wire Line
	4915 5300 4795 5300
Text GLabel 2645 5580 0    50   BiDi ~ 0
GPIO16
Wire Notes Line
	3410 4795 3410 6590
Wire Wire Line
	3740 925  3740 1250
Wire Wire Line
	1660 800  1660 875 
Wire Wire Line
	2095 1145 2095 1250
$Comp
L power:+3.3V #PWR0101
U 1 1 600832DB
P 5910 2965
F 0 "#PWR0101" H 5910 2815 50  0001 C CNN
F 1 "+3.3V" H 5925 3138 50  0000 C CNN
F 2 "" H 5910 2965 50  0001 C CNN
F 3 "" H 5910 2965 50  0001 C CNN
	1    5910 2965
	1    0    0    -1  
$EndComp
Wire Wire Line
	6015 3075 6015 3020
Wire Wire Line
	6015 3020 5910 3020
Wire Wire Line
	5910 3020 5910 2965
Wire Wire Line
	5910 3020 5815 3020
Wire Wire Line
	5815 3020 5815 3075
Connection ~ 5910 3020
Text GLabel 6605 3575 2    50   BiDi ~ 0
GPIO14_SCK
Text GLabel 6605 3375 2    50   BiDi ~ 0
GPIO12_MISO
Text GLabel 6605 3775 2    50   BiDi ~ 0
GPIO13_MOSI
Wire Wire Line
	6605 3375 6515 3375
Wire Wire Line
	6605 3575 6515 3575
Wire Wire Line
	6605 3775 6515 3775
Text GLabel 6605 3975 2    50   BiDi ~ 0
GPIO5
Wire Wire Line
	6605 3975 6515 3975
$Comp
L power:GND #PWR0102
U 1 1 600E7779
P 5920 4360
F 0 "#PWR0102" H 5920 4110 50  0001 C CNN
F 1 "GND" H 5925 4187 50  0000 C CNN
F 2 "" H 5920 4360 50  0001 C CNN
F 3 "" H 5920 4360 50  0001 C CNN
	1    5920 4360
	1    0    0    -1  
$EndComp
Wire Wire Line
	6015 4275 6015 4315
Wire Wire Line
	6015 4315 5920 4315
Wire Wire Line
	5815 4315 5815 4275
Wire Wire Line
	5920 4315 5920 4360
Connection ~ 5920 4315
Wire Wire Line
	5920 4315 5815 4315
Wire Notes Line
	5130 4615 5130 2720
Text Notes 670  6500 0    50   ~ 0
DHT11 Sensor & WakeUp GPIO Pin
Text Notes 2010 7680 0    50   ~ 0
PullDown\nFor Boot\nMode
Text Notes 3030 7060 0    50   ~ 0
PullUps\nFor Running\nMode
Wire Notes Line
	4760 6765 6110 6765
Wire Notes Line
	4760 7775 6110 7775
Wire Notes Line
	6110 6765 6110 7775
Wire Notes Line
	910  2590 4685 2590
Wire Notes Line
	4685 2590 4685 4245
Wire Notes Line
	4685 4245 910  4245
Wire Notes Line
	910  4245 910  2590
$Comp
L Connector_Generic:Conn_01x18 J3
U 1 1 60292223
P 5430 1620
F 0 "J3" H 5348 2637 50  0000 C CNN
F 1 "Conn_01x18" H 5348 2546 50  0000 C CNN
F 2 "Connector_PinHeader_2.54mm:PinHeader_1x18_P2.54mm_Vertical" H 5430 1620 50  0001 C CNN
F 3 "~" H 5430 1620 50  0001 C CNN
	1    5430 1620
	-1   0    0    -1  
$EndComp
Wire Notes Line
	600  535  5160 535 
Wire Notes Line
	5160 535  5160 2120
Wire Notes Line
	5160 2120 600  2120
Wire Notes Line
	600  535  600  2120
$Comp
L power:VBUS #PWR038
U 1 1 6032AA98
P 6030 855
F 0 "#PWR038" H 6030 705 50  0001 C CNN
F 1 "VBUS" H 6045 1028 50  0000 C CNN
F 2 "" H 6030 855 50  0001 C CNN
F 3 "" H 6030 855 50  0001 C CNN
	1    6030 855 
	1    0    0    -1  
$EndComp
$Comp
L power:+3.3V #PWR039
U 1 1 6032BF90
P 6235 955
F 0 "#PWR039" H 6235 805 50  0001 C CNN
F 1 "+3.3V" H 6250 1128 50  0000 C CNN
F 2 "" H 6235 955 50  0001 C CNN
F 3 "" H 6235 955 50  0001 C CNN
	1    6235 955 
	1    0    0    -1  
$EndComp
Wire Wire Line
	5630 820  5835 820 
Wire Wire Line
	5835 820  5835 755 
Wire Wire Line
	5630 920  6030 920 
Wire Wire Line
	6030 920  6030 855 
Wire Wire Line
	5630 1020 6235 1020
Wire Wire Line
	6235 955  6235 1020
Text GLabel 5700 2420 2    50   Input ~ 0
ADC
Text GLabel 5700 2220 2    50   BiDi ~ 0
GPIO16
Text GLabel 6815 1585 2    50   BiDi ~ 0
GPIO15
Text GLabel 5700 2120 2    50   BiDi ~ 0
GPIO14_SCK
Text GLabel 6810 1285 2    50   BiDi ~ 0
GPIO4
Text GLabel 6810 1385 2    50   BiDi ~ 0
GPIO0
Text GLabel 6815 1485 2    50   BiDi ~ 0
GPIO2
Text GLabel 6810 1185 2    50   BiDi ~ 0
GPIO5
Wire Wire Line
	5630 2420 5700 2420
Wire Wire Line
	5630 2220 5700 2220
Wire Wire Line
	6745 1585 6815 1585
Wire Wire Line
	5630 2120 5700 2120
Wire Wire Line
	6745 1185 6810 1185
Wire Wire Line
	6745 1285 6810 1285
Wire Wire Line
	5630 2320 5690 2320
Wire Wire Line
	5630 1120 5690 1120
Wire Wire Line
	5630 1220 5690 1220
Wire Wire Line
	5630 1320 5690 1320
Wire Wire Line
	5630 2520 5690 2520
$Comp
L Connector_Generic:Conn_01x15 J4
U 1 1 604AF69A
P 6545 1685
F 0 "J4" H 6463 760 50  0000 C CNN
F 1 "Conn_01x15" H 6463 851 50  0000 C CNN
F 2 "Connector_PinHeader_2.54mm:PinHeader_1x15_P2.54mm_Vertical" H 6545 1685 50  0001 C CNN
F 3 "~" H 6545 1685 50  0001 C CNN
	1    6545 1685
	-1   0    0    1   
$EndComp
Text GLabel 6815 1085 2    50   Output ~ 0
RxD
Text GLabel 6815 2285 2    50   UnSpc ~ 0
DTR
Text GLabel 5690 2520 2    50   Input ~ 0
~RESET
Text GLabel 5690 2320 2    50   Input ~ 0
ENABLE
Wire Wire Line
	5690 1120 5690 1220
Wire Wire Line
	5690 1320 5690 1220
Connection ~ 5690 1220
$Comp
L power:GND #PWR040
U 1 1 605C2007
P 6120 1255
F 0 "#PWR040" H 6120 1005 50  0001 C CNN
F 1 "GND" H 6125 1082 50  0000 C CNN
F 2 "" H 6120 1255 50  0001 C CNN
F 3 "" H 6120 1255 50  0001 C CNN
	1    6120 1255
	1    0    0    -1  
$EndComp
Wire Wire Line
	6120 1255 6120 1220
Wire Wire Line
	6120 1220 5690 1220
Wire Notes Line
	7465 530  7465 2635
Wire Notes Line
	7465 2635 5240 2635
Wire Notes Line
	5240 2635 5240 530 
Wire Notes Line
	5240 530  7465 530 
Text Notes 695  675  0    50   ~ 0
3.3V Power Stage
Text Notes 635  1985 0    50   ~ 0
Local Decoupling
Text Notes 1200 4130 0    50   ~ 0
Local Decoupling
Text Notes 995  2725 0    50   ~ 0
5v USB VBUS to battery -- power stage
Wire Notes Line
	7470 2720 7470 4615
Wire Notes Line
	5130 4615 7470 4615
Wire Notes Line
	5130 2720 7470 2720
Text Notes 6245 2830 0    50   ~ 0
BME680 Environmental Sensor
Text Notes 7595 735  0    50   ~ 0
USB to UART\nInterface
Text Notes 4700 6485 0    50   ~ 0
ESP-12S Module
Text Notes 5750 4990 0    50   ~ 0
Reset Debouncing\n& Programming Mode
Wire Wire Line
	6745 1085 6815 1085
Wire Wire Line
	6815 2085 6745 2085
Wire Wire Line
	7745 2975 7745 2905
Wire Wire Line
	7745 2975 7845 2975
Connection ~ 7845 2975
Wire Wire Line
	7845 2975 7845 3030
$Comp
L Diode:MBR0520 D1
U 1 1 6081C0AE
P 1660 1025
F 0 "D1" V 1740 1180 50  0000 R CNN
F 1 "MBR0520" V 1650 1430 50  0000 R CNN
F 2 "Diode_SMD:D_SOD-123" H 1660 850 50  0001 C CNN
F 3 "http://www.mccsemi.com/up_pdf/MBR0520~MBR0580(SOD123).pdf" H 1660 1025 50  0001 C CNN
	1    1660 1025
	0    -1   -1   0   
$EndComp
$Comp
L power:+BATT #PWR043
U 1 1 6081D2DF
P 1660 800
F 0 "#PWR043" H 1660 650 50  0001 C CNN
F 1 "+BATT" H 1675 973 50  0000 C CNN
F 2 "" H 1660 800 50  0001 C CNN
F 3 "" H 1660 800 50  0001 C CNN
	1    1660 800 
	1    0    0    -1  
$EndComp
Text Notes 6925 620  0    50   ~ 0
Pin Headers
Text Notes 8130 5125 0    50   ~ 0
Programming\nStatus LED
Text Notes 9585 5115 0    50   ~ 0
Reset\nPush\nButton
Text Notes 2430 6030 0    50   ~ 0
Manual\nWakeUp
Wire Notes Line
	550  7930 550  4690
Wire Notes Line
	550  4690 10070 4690
Wire Notes Line
	550  7930 6155 7930
Wire Notes Line
	610  4795 610  6590
Wire Notes Line
	610  6590 3410 6590
Wire Notes Line
	610  4795 3410 4795
Text Notes 5630 7705 0    50   ~ 0
Local\nDecoupling
$Comp
L Mechanical:MountingHole_Pad MH1
U 1 1 608C4AEB
P 8140 3950
F 0 "MH1" H 8240 3999 50  0000 L CNN
F 1 "Pad1" H 8240 3908 50  0000 L CNN
F 2 "MountingHole:MountingHole_2.7mm_M2.5_ISO14580_Pad" H 8140 3950 50  0001 C CNN
F 3 "~" H 8140 3950 50  0001 C CNN
	1    8140 3950
	1    0    0    -1  
$EndComp
$Comp
L Mechanical:MountingHole_Pad MH2
U 1 1 608C561B
P 8595 3950
F 0 "MH2" H 8695 3999 50  0000 L CNN
F 1 "Pad2" H 8695 3908 50  0000 L CNN
F 2 "MountingHole:MountingHole_2.7mm_M2.5_ISO14580_Pad" H 8595 3950 50  0001 C CNN
F 3 "~" H 8595 3950 50  0001 C CNN
	1    8595 3950
	1    0    0    -1  
$EndComp
$Comp
L Mechanical:MountingHole_Pad MH3
U 1 1 608C5A77
P 9090 3950
F 0 "MH3" H 9190 3999 50  0000 L CNN
F 1 "Pad3" H 9190 3908 50  0000 L CNN
F 2 "MountingHole:MountingHole_2.7mm_M2.5_ISO14580_Pad" H 9090 3950 50  0001 C CNN
F 3 "~" H 9090 3950 50  0001 C CNN
	1    9090 3950
	1    0    0    -1  
$EndComp
$Comp
L Mechanical:MountingHole_Pad MH4
U 1 1 608C5EC5
P 9600 3950
F 0 "MH4" H 9700 3999 50  0000 L CNN
F 1 "Pad4" H 9700 3908 50  0000 L CNN
F 2 "MountingHole:MountingHole_2.7mm_M2.5_ISO14580_Pad" H 9600 3950 50  0001 C CNN
F 3 "~" H 9600 3950 50  0001 C CNN
	1    9600 3950
	1    0    0    -1  
$EndComp
$Comp
L power:GND #PWR047
U 1 1 608CD274
P 9600 4170
F 0 "#PWR047" H 9600 3920 50  0001 C CNN
F 1 "GND" H 9605 3997 50  0000 C CNN
F 2 "" H 9600 4170 50  0001 C CNN
F 3 "" H 9600 4170 50  0001 C CNN
	1    9600 4170
	1    0    0    -1  
$EndComp
$Comp
L power:GND #PWR046
U 1 1 608CD952
P 9090 4170
F 0 "#PWR046" H 9090 3920 50  0001 C CNN
F 1 "GND" H 9095 3997 50  0000 C CNN
F 2 "" H 9090 4170 50  0001 C CNN
F 3 "" H 9090 4170 50  0001 C CNN
	1    9090 4170
	1    0    0    -1  
$EndComp
$Comp
L power:GND #PWR045
U 1 1 608CEB23
P 8595 4170
F 0 "#PWR045" H 8595 3920 50  0001 C CNN
F 1 "GND" H 8600 3997 50  0000 C CNN
F 2 "" H 8595 4170 50  0001 C CNN
F 3 "" H 8595 4170 50  0001 C CNN
	1    8595 4170
	1    0    0    -1  
$EndComp
$Comp
L power:GND #PWR044
U 1 1 608CEEF2
P 8140 4170
F 0 "#PWR044" H 8140 3920 50  0001 C CNN
F 1 "GND" H 8145 3997 50  0000 C CNN
F 2 "" H 8140 4170 50  0001 C CNN
F 3 "" H 8140 4170 50  0001 C CNN
	1    8140 4170
	1    0    0    -1  
$EndComp
Wire Wire Line
	9600 4050 9600 4170
Wire Wire Line
	9090 4050 9090 4170
Wire Wire Line
	8595 4050 8595 4170
Wire Wire Line
	8140 4170 8140 4050
Wire Notes Line
	7935 4490 10145 4490
Wire Notes Line
	10145 4490 10145 3500
Wire Notes Line
	10145 3500 7935 3500
Wire Notes Line
	7935 3500 7935 4490
Text Notes 8010 3645 0    50   ~ 0
Mounting Holes
Wire Wire Line
	5630 1820 5690 1820
Wire Wire Line
	5690 1420 5630 1420
Connection ~ 5690 1320
Wire Wire Line
	5690 1520 5630 1520
Wire Wire Line
	5690 1320 5690 1420
Connection ~ 5690 1420
Wire Wire Line
	5690 1420 5690 1520
Wire Wire Line
	5690 1520 5690 1620
Wire Wire Line
	5690 1620 5630 1620
Connection ~ 5690 1520
Wire Wire Line
	5690 1620 5690 1720
Wire Wire Line
	5690 1720 5630 1720
Connection ~ 5690 1620
Wire Wire Line
	6745 985  6815 985 
Text GLabel 6815 985  2    50   Input ~ 0
TxD
Text GLabel 5700 1920 2    50   BiDi ~ 0
GPIO13_MOSI
Text GLabel 5695 2020 2    50   BiDi ~ 0
GPIO12_MISO
Wire Wire Line
	5630 1920 5700 1920
Wire Wire Line
	5630 2020 5695 2020
Wire Wire Line
	6745 1385 6810 1385
Wire Wire Line
	6745 1485 6815 1485
Wire Wire Line
	6745 1685 6805 1685
Wire Wire Line
	6745 1785 6805 1785
Wire Wire Line
	6745 1885 6805 1885
Wire Wire Line
	6805 1685 6805 1785
Wire Wire Line
	6805 1885 6805 1785
Connection ~ 6805 1785
$Comp
L power:GND #PWR042
U 1 1 606230E7
P 7235 1820
F 0 "#PWR042" H 7235 1570 50  0001 C CNN
F 1 "GND" H 7240 1647 50  0000 C CNN
F 2 "" H 7235 1820 50  0001 C CNN
F 3 "" H 7235 1820 50  0001 C CNN
	1    7235 1820
	1    0    0    -1  
$EndComp
Wire Wire Line
	7235 1820 7235 1785
Wire Wire Line
	7235 1785 6805 1785
Wire Wire Line
	6805 1885 6805 1985
Wire Wire Line
	6805 1985 6745 1985
Connection ~ 6805 1885
$Comp
L power:VBUS #PWR028
U 1 1 60F01EDD
P 8500 780
F 0 "#PWR028" H 8500 630 50  0001 C CNN
F 1 "VBUS" H 8515 953 50  0000 C CNN
F 2 "" H 8500 780 50  0001 C CNN
F 3 "" H 8500 780 50  0001 C CNN
	1    8500 780 
	1    0    0    -1  
$EndComp
Wire Wire Line
	8500 780  8500 1040
NoConn ~ 10140 1905
NoConn ~ 2190 -465
Wire Wire Line
	6745 2185 6815 2185
Wire Wire Line
	6815 2285 6745 2285
Text GLabel 6815 2185 2    50   UnSpc ~ 0
RTS
Text GLabel 6815 2085 2    50   UnSpc ~ 0
CTS
Wire Wire Line
	6815 2385 6745 2385
$Comp
L Sensor:BME680 U6
U 1 1 6007F14C
P 5915 3675
F 0 "U6" H 5486 3721 50  0000 R CNN
F 1 "BME680" H 5486 3630 50  0000 R CNN
F 2 "Package_LGA:Bosch_LGA-8_3x3mm_P0.8mm_ClockwisePinNumbering" H 7365 3225 50  0001 C CNN
F 3 "https://ae-bst.resource.bosch.com/media/_tech/media/datasheets/BST-BME680-DS001.pdf" H 5915 3475 50  0001 C CNN
	1    5915 3675
	1    0    0    -1  
$EndComp
$Comp
L power:GND #PWR041
U 1 1 5FE9947C
P 6815 2385
F 0 "#PWR041" H 6815 2135 50  0001 C CNN
F 1 "GND" H 6820 2212 50  0000 C CNN
F 2 "" H 6815 2385 50  0001 C CNN
F 3 "" H 6815 2385 50  0001 C CNN
	1    6815 2385
	1    0    0    -1  
$EndComp
NoConn ~ 5690 1820
$EndSCHEMATC
